^C:\HELPDESK\NEWHELPDESKSOLUTION\HELPDESKWEB\HELPDESKWEB\CALL.ASPX.RESX|C:\HELPDESK\NEWHELPDESKSOLUTION\HELPDESKWEB\HELPDESKWEB\CALLDETAILS.ASPX.RESX|C:\HELPDESK\NEWHELPDESKSOLUTION\HELPDESKWEB\HELPDESKWEB\CALLLIST.ASPX.RESX|C:\HELPDESK\NEWHELPDESKSOLUTION\HELPDESKWEB\HELPDESKWEB\CLIENTSUMMARY.ASPX.RESX|C:\HELPDESK\NEWHELPDESKSOLUTION\HELPDESKWEB\HELPDESKWEB\CONTACTDETAILS.ASPX.RESX|C:\HELPDESK\NEWHELPDESKSOLUTION\HELPDESKWEB\HELPDESKWEB\CONTACTLIST.ASPX.RESX|C:\HELPDESK\NEWHELPDESKSOLUTION\HELPDESKWEB\HELPDESKWEB\DEFAULT.ASPX.RESX|C:\HELPDESK\NEWHELPDESKSOLUTION\HELPDESKWEB\HELPDESKWEB\ERROR.ASPX.RESX|C:\HELPDESK\NEWHELPDESKSOLUTION\HELPDESKWEB\HELPDESKWEB\MY PROJECT\RESOURCES.RESX|C:\HELPDESK\NEWHELPDESKSOLUTION\HELPDESKWEB\HELPDESKWEB\NEWSYSTEMSUMMARY.ASPX.RESX|C:\HELPDESK\NEWHELPDESKSOLUTION\HELPDESKWEB\HELPDESKWEB\SEARCHRESULTS.ASPX.RESX|C:\HELPDESK\NEWHELPDESKSOLUTION\HELPDESKWEB\HELPDESKWEB\SETUP.ASPX.RESX|C:\HELPDESK\NEWHELPDESKSOLUTION\HELPDESKWEB\HELPDESKWEB\STATUSDETAILS.ASPX.RESX|C:\HELPDESK\NEWHELPDESKSOLUTION\HELPDESKWEB\HELPDESKWEB\STATUSLIST.ASPX.RESX|C:\HELPDESK\NEWHELPDESKSOLUTION\HELPDESKWEB\HELPDESKWEB\SYSTEMSUMMARY.ASPX.RESX|C:\HELPDESK\NEWHELPDESKSOLUTION\HELPDESKWEB\HELPDESKWEB\VERIFYPARAMS.ASPX.RESX
C:\HELPDESK\NEWHELPDESKSOLUTION\HELPDESKWEB\HELPDESKWEB\OBJ\DEBUG\HELPDESKWEB._CALL.RESOURCES
C:\HELPDESK\NEWHELPDESKSOLUTION\HELPDESKWEB\HELPDESKWEB\OBJ\DEBUG\HELPDESKWEB.CALLDETAILS.RESOURCES
C:\HELPDESK\NEWHELPDESKSOLUTION\HELPDESKWEB\HELPDESKWEB\OBJ\DEBUG\HELPDESKWEB.CALLLIST.RESOURCES
C:\HELPDESK\NEWHELPDESKSOLUTION\HELPDESKWEB\HELPDESKWEB\OBJ\DEBUG\HELPDESKWEB.CLIENTSUMMARY.RESOURCES
C:\HELPDESK\NEWHELPDESKSOLUTION\HELPDESKWEB\HELPDESKWEB\OBJ\DEBUG\HELPDESKWEB.CONTACTDETAILS.RESOURCES
C:\HELPDESK\NEWHELPDESKSOLUTION\HELPDESKWEB\HELPDESKWEB\OBJ\DEBUG\HELPDESKWEB.CONTACTLIST.RESOURCES
C:\HELPDESK\NEWHELPDESKSOLUTION\HELPDESKWEB\HELPDESKWEB\OBJ\DEBUG\HELPDESKWEB.STATUSLIST.RESOURCES
C:\HELPDESK\NEWHELPDESKSOLUTION\HELPDESKWEB\HELPDESKWEB\OBJ\DEBUG\HELPDESKWEB.STATUSDETAILS.RESOURCES
C:\HELPDESK\NEWHELPDESKSOLUTION\HELPDESKWEB\HELPDESKWEB\OBJ\DEBUG\HELPDESKWEB._DEFAULT.RESOURCES
C:\HELPDESK\NEWHELPDESKSOLUTION\HELPDESKWEB\HELPDESKWEB\OBJ\DEBUG\HELPDESKWEB._ERROR.RESOURCES
C:\HELPDESK\NEWHELPDESKSOLUTION\HELPDESKWEB\HELPDESKWEB\OBJ\DEBUG\HELPDESKWEB.RESOURCES.RESOURCES
C:\HELPDESK\NEWHELPDESKSOLUTION\HELPDESKWEB\HELPDESKWEB\OBJ\DEBUG\HELPDESKWEB.NEWSYSTEMSUMMARY.RESOURCES
C:\HELPDESK\NEWHELPDESKSOLUTION\HELPDESKWEB\HELPDESKWEB\OBJ\DEBUG\HELPDESKWEB.SEARCHRESULTS.RESOURCES
C:\HELPDESK\NEWHELPDESKSOLUTION\HELPDESKWEB\HELPDESKWEB\OBJ\DEBUG\HELPDESKWEB.SETUP.RESOURCES
C:\HELPDESK\NEWHELPDESKSOLUTION\HELPDESKWEB\HELPDESKWEB\OBJ\DEBUG\HELPDESKWEB.SYSTEMSUMMARY.RESOURCES
C:\HELPDESK\NEWHELPDESKSOLUTION\HELPDESKWEB\HELPDESKWEB\OBJ\DEBUG\HELPDESKWEB.VERIFYPARAMS.RESOURCES
